v16_rutherford/data/pulse_without_amp/ALL0000/F0000CH1.CSV

Record Length,2.500000e+03,,  -0.000142000000,   4.98000,
Sample Interval,2.000000e-07,,  -0.000141800000,   5.00000,
Trigger Point,7.100000000000e+02,,  -0.000141600000,   4.98000,
,,,  -0.000141400000,   5.00000,
,,,  -0.000141200000,   4.98000,
,,,  -0.000141000000,   5.00000,
Source,CH1,,  -0.000140800000,   5.00000,
Vertical Units,V,,  -0.000140600000,   4.98000,
Vertical Scale,5.000000e-01,,  -0.000140400000,   5.00000,
Vertical Offset,-5.040000e+00,,  -0.000140200000,   5.02000,
Horizontal Units,s,,  -0.000140000000,   4.98000,
Horizontal Scale,5.000000e-05,,  -0.000139800000,   5.00000,
Pt Fmt,Y,,  -0.000139600000,   5.00000,
Yzero,0.000000e+00,,  -0.000139400000,   5.00000,
Probe Atten,1.000000e+01,,  -0.000139200000,   5.00000,
Model Number,TDS1001B,,  -0.000139000000,   4.96000,
Serial Number,C051164,,  -0.000138800000,   4.98000,
Firmware Version,FV:v22.01,,  -0.000138600000,   4.98000,
,,,-00.000138400000,   4.98000,
,,,-00.000138200000,   4.98000,
,,,-00.000138000000,   4.98000,
,,,-00.000137800000,   4.96000,
,,,-00.000137600000,   4.98000,
,,,-00.000137400000,   4.98000,
,,,-00.000137200000,   5.00000,
,,,-00.000137000000,   4.98000,
,,,-00.000136800000,   4.98000,
,,,-00.000136600000,   4.96000,
,,,-00.000136400000,   4.98000,
,,,-00.000136200000,   4.96000,
,,,-00.000136000000,   4.96000,
,,,-00.000135800000,   4.96000,
,,,-00.000135600000,   4.94000,
,,,-00.000135400000,   4.96000,
,,,-00.000135200000,   5.00000,
,,,-00.000135000000,   5.00000,
,,,-00.000134800000,   4.98000,
,,,-00.000134600000,   5.00000,
,,,-00.000134400000,   4.98000,
,,,-00.000134200000,   5.00000,
,,,-00.000134000000,   4.98000,
,,,-00.000133800000,   4.94000,
,,,-00.000133600000,   5.00000,
,,,-00.000133400000,   4.94000,
,,,-00.000133200000,   4.96000,
,,,-00.000133000000,   4.96000,
,,,-00.000132800000,   4.98000,
,,,-00.000132600000,   4.96000,
,,,-00.000132400000,   5.00000,
,,,-00.000132200000,   4.98000,
,,,-00.000132000000,   5.00000,
,,,-00.000131800000,   4.94000,
,,,-00.000131600000,   4.96000,
,,,-00.000131400000,   4.98000,
,,,-00.000131200000,   5.00000,
,,,-00.000131000000,   5.02000,
,,,-00.000130800000,   5.00000,
,,,-00.000130600000,   5.00000,
,,,-00.000130400000,   5.00000,
,,,-00.000130200000,   5.00000,
,,,-00.000130000000,   4.96000,
,,,-00.000129800000,   4.96000,
,,,-00.000129600000,   4.98000,
,,,-00.000129400000,   5.00000,
,,,-00.000129200000,   4.98000,
,,,-00.000129000000,   4.96000,
,,,-00.000128800000,   4.98000,
,,,-00.000128600000,   5.00000,
,,,-00.000128400000,   5.00000,
,,,-00.000128200000,   4.94000,
,,,-00.000128000000,   5.00000,
,,,-00.000127800000,   4.98000,
,,,-00.000127600000,   5.02000,
,,,-00.000127400000,   5.02000,
,,,-00.000127200000,   5.00000,
,,,-00.000127000000,   4.98000,
,,,-00.000126800000,   5.00000,
,,,-00.000126600000,   4.96000,
,,,-00.000126400000,   4.98000,
,,,-00.000126200000,   4.98000,
,,,-00.000126000000,   5.00000,
,,,-00.000125800000,   4.98000,
,,,-00.000125600000,   5.02000,
,,,-00.000125400000,   4.98000,
,,,-00.000125200000,   5.00000,
,,,-00.000125000000,   5.00000,
,,,-00.000124800000,   4.98000,
,,,-00.000124600000,   4.98000,
,,,-00.000124400000,   4.96000,
,,,-00.000124200000,   5.00000,
,,,-00.000124000000,   4.98000,
,,,-00.000123800000,   5.00000,
,,,-00.000123600000,   5.00000,
,,,-00.000123400000,   4.96000,
,,,-00.000123200000,   4.98000,
,,,-00.000123000000,   4.98000,
,,,-00.000122800000,   4.98000,
,,,-00.000122600000,   4.96000,
,,,-00.000122400000,   4.96000,
,,,-00.000122200000,   4.98000,
,,,-00.000122000000,   5.00000,
,,,-00.000121800000,   4.96000,
,,,-00.000121600000,   5.00000,
,,,-00.000121400000,   5.00000,
,,,-00.000121200000,   4.96000,
,,,-00.000121000000,   4.96000,
,,,-00.000120800000,   5.00000,
,,,-00.000120600000,   4.96000,
,,,-00.000120400000,   4.98000,
,,,-00.000120200000,   4.96000,
,,,-00.000120000000,   4.96000,
,,,-00.000119800000,   4.96000,
,,,-00.000119600000,   4.98000,
,,,-00.000119400000,   4.98000,
,,,-00.000119200000,   4.98000,
,,,-00.000119000000,   4.98000,
,,,-00.000118800000,   4.96000,
,,,-00.000118600000,   4.94000,
,,,-00.000118400000,   4.96000,
,,,-00.000118200000,   4.92000,
,,,-00.000118000000,   4.96000,
,,,-00.000117800000,   4.98000,
,,,-00.000117600000,   4.96000,
,,,-00.000117400000,   5.02000,
,,,-00.000117200000,   4.96000,
,,,-00.000117000000,   5.00000,
,,,-00.000116800000,   4.98000,
,,,-00.000116600000,   4.96000,
,,,-00.000116400000,   4.98000,
,,,-00.000116200000,   4.96000,
,,,-00.000116000000,   4.98000,
,,,-00.000115800000,   5.02000,
,,,-00.000115600000,   4.98000,
,,,-00.000115400000,   5.00000,
,,,-00.000115200000,   4.98000,
,,,-00.000115000000,   4.98000,
,,,-00.000114800000,   5.00000,
,,,-00.000114600000,   4.96000,
,,,-00.000114400000,   4.96000,
,,,-00.000114200000,   4.96000,
,,,-00.000114000000,   5.00000,
,,,-00.000113800000,   4.98000,
,,,-00.000113600000,   4.98000,
,,,-00.000113400000,   5.00000,
,,,-00.000113200000,   4.98000,
,,,-00.000113000000,   4.98000,
,,,-00.000112800000,   4.98000,
,,,-00.000112600000,   4.98000,
,,,-00.000112400000,   5.00000,
,,,-00.000112200000,   4.98000,
,,,-00.000112000000,   4.98000,
,,,-00.000111800000,   5.00000,
,,,-00.000111600000,   4.98000,
,,,-00.000111400000,   4.98000,
,,,-00.000111200000,   4.98000,
,,,-00.000111000000,   5.00000,
,,,-00.000110800000,   4.98000,
,,,-00.000110600000,   5.00000,
,,,-00.000110400000,   5.00000,
,,,-00.000110200000,   5.00000,
,,,-00.000110000000,   5.00000,
,,,-00.000109800000,   4.96000,
,,,-00.000109600000,   4.98000,
,,,-00.000109400000,   4.96000,
,,,-00.000109200000,   5.00000,
,,,-00.000109000000,   4.98000,
,,,-00.000108800000,   4.98000,
,,,-00.000108600000,   4.94000,
,,,-00.000108400000,   4.94000,
,,,-00.000108200000,   4.96000,
,,,-00.000108000000,   5.00000,
,,,-00.000107800000,   4.98000,
,,,-00.000107600000,   5.00000,
,,,-00.000107400000,   4.96000,
,,,-00.000107200000,   4.96000,
,,,-00.000107000000,   4.96000,
,,,-00.000106800000,   4.98000,
,,,-00.000106600000,   5.00000,
,,,-00.000106400000,   4.94000,
,,,-00.000106200000,   4.98000,
,,,-00.000106000000,   4.94000,
,,,-00.000105800000,   4.98000,
,,,-00.000105600000,   4.96000,
,,,-00.000105400000,   4.94000,
,,,-00.000105200000,   4.98000,
,,,-00.000105000000,   4.94000,
,,,-00.000104800000,   4.94000,
,,,-00.000104600000,   4.98000,
,,,-00.000104400000,   4.98000,
,,,-00.000104200000,   4.98000,
,,,-00.000104000000,   4.96000,
,,,-00.000103800000,   5.00000,
,,,-00.000103600000,   4.94000,
,,,-00.000103400000,   4.94000,
,,,-00.000103200000,   5.00000,
,,,-00.000103000000,   5.02000,
,,,-00.000102800000,   5.02000,
,,,-00.000102600000,   4.96000,
,,,-00.000102400000,   4.98000,
,,,-00.000102200000,   5.00000,
,,,-00.000102000000,   4.96000,
,,,-00.000101800000,   4.98000,
,,,-00.000101600000,   4.98000,
,,,-00.000101400000,   4.98000,
,,,-00.000101200000,   4.98000,
,,,-00.000101000000,   4.94000,
,,,-00.000100800000,   5.00000,
,,,-00.000100600000,   5.00000,
,,,-00.000100400000,   4.98000,
,,,-00.000100200000,   4.96000,
,,,-00.000100000000,   4.96000,
,,,-00.000099800000,   4.96000,
,,,-00.000099600000,   4.94000,
,,,-00.000099400000,   4.96000,
,,,-00.000099200000,   5.02000,
,,,-00.000099000000,   5.00000,
,,,-00.000098800000,   4.96000,
,,,-00.000098600000,   5.00000,
,,,-00.000098400000,   4.96000,
,,,-00.000098200000,   4.96000,
,,,-00.000098000000,   4.98000,
,,,-00.000097800000,   4.98000,
,,,-00.000097600000,   4.98000,
,,,-00.000097400000,   5.00000,
,,,-00.000097200000,   5.00000,
,,,-00.000097000000,   4.98000,
,,,-00.000096800000,   4.98000,
,,,-00.000096600000,   5.00000,
,,,-00.000096400000,   4.96000,
,,,-00.000096200000,   4.96000,
,,,-00.000096000000,   5.00000,
,,,-00.000095800000,   5.00000,
,,,-00.000095600000,   5.02000,
,,,-00.000095400000,   4.96000,
,,,-00.000095200000,   4.94000,
,,,-00.000095000000,   5.00000,
,,,-00.000094800000,   4.98000,
,,,-00.000094600000,   5.00000,
,,,-00.000094400000,   4.96000,
,,,-00.000094200000,   4.98000,
,,,-00.000094000000,   4.96000,
,,,-00.000093800000,   5.00000,
,,,-00.000093600000,   4.96000,
,,,-00.000093400000,   5.00000,
,,,-00.000093200000,   5.00000,
,,,-00.000093000000,   4.96000,
,,,-00.000092800000,   4.98000,
,,,-00.000092600000,   5.02000,
,,,-00.000092400000,   4.98000,
,,,-00.000092200000,   4.98000,
,,,-00.000092000000,   4.98000,
,,,-00.000091800000,   4.98000,
,,,-00.000091600000,   4.98000,
,,,-00.000091400000,   5.00000,
,,,-00.000091200000,   5.02000,
,,,-00.000091000000,   5.02000,
,,,-00.000090800000,   4.98000,
,,,-00.000090600000,   5.00000,
,,,-00.000090400000,   4.98000,
,,,-00.000090200000,   4.98000,
,,,-00.000090000000,   5.00000,
,,,-00.000089800000,   4.98000,
,,,-00.000089600000,   5.00000,
,,,-00.000089400000,   4.96000,
,,,-00.000089200000,   5.00000,
,,,-00.000089000000,   4.98000,
,,,-00.000088800000,   4.98000,
,,,-00.000088600000,   4.96000,
,,,-00.000088400000,   4.98000,
,,,-00.000088200000,   5.02000,
,,,-00.000088000000,   4.96000,
,,,-00.000087800000,   4.96000,
,,,-00.000087600000,   4.98000,
,,,-00.000087400000,   4.98000,
,,,-00.000087200000,   4.98000,
,,,-00.000087000000,   4.96000,
,,,-00.000086800000,   4.98000,
,,,-00.000086600000,   4.98000,
,,,-00.000086400000,   4.96000,
,,,-00.000086200000,   4.94000,
,,,-00.000086000000,   4.98000,
,,,-00.000085800000,   4.96000,
,,,-00.000085600000,   4.96000,
,,,-00.000085400000,   4.98000,
,,,-00.000085200000,   4.96000,
,,,-00.000085000000,   4.96000,
,,,-00.000084800000,   4.98000,
,,,-00.000084600000,   4.96000,
,,,-00.000084400000,   4.96000,
,,,-00.000084200000,   4.96000,
,,,-00.000084000000,   4.96000,
,,,-00.000083800000,   4.94000,
,,,-00.000083600000,   4.96000,
,,,-00.000083400000,   4.96000,
,,,-00.000083200000,   4.96000,
,,,-00.000083000000,   4.94000,
,,,-00.000082800000,   4.92000,
,,,-00.000082600000,   4.94000,
,,,-00.000082400000,   4.98000,
,,,-00.000082200000,   4.98000,
,,,-00.000082000000,   5.00000,
,,,-00.000081800000,   4.96000,
,,,-00.000081600000,   4.96000,
,,,-00.000081400000,   4.96000,
,,,-00.000081200000,   4.94000,
,,,-00.000081000000,   4.94000,
,,,-00.000080800000,   4.94000,
,,,-00.000080600000,   4.94000,
,,,-00.000080400000,   4.96000,
,,,-00.000080200000,   4.94000,
,,,-00.000080000000,   4.98000,
,,,-00.000079800000,   4.98000,
,,,-00.000079600000,   4.96000,
,,,-00.000079400000,   4.94000,
,,,-00.000079200000,   4.96000,
,,,-00.000079000000,   4.96000,
,,,-00.000078800000,   4.96000,
,,,-00.000078600000,   4.96000,
,,,-00.000078400000,   4.94000,
,,,-00.000078200000,   4.98000,
,,,-00.000078000000,   4.98000,
,,,-00.000077800000,   4.96000,
,,,-00.000077600000,   4.94000,
,,,-00.000077400000,   4.98000,
,,,-00.000077200000,   5.00000,
,,,-00.000077000000,   4.96000,
,,,-00.000076800000,   4.96000,
,,,-00.000076600000,   4.94000,
,,,-00.000076400000,   4.98000,
,,,-00.000076200000,   4.96000,
,,,-00.000076000000,   5.00000,
,,,-00.000075800000,   4.96000,
,,,-00.000075600000,   4.96000,
,,,-00.000075400000,   4.96000,
,,,-00.000075200000,   4.98000,
,,,-00.000075000000,   4.94000,
,,,-00.000074800000,   4.98000,
,,,-00.000074600000,   4.98000,
,,,-00.000074400000,   4.96000,
,,,-00.000074200000,   4.96000,
,,,-00.000074000000,   4.98000,
,,,-00.000073800000,   5.02000,
,,,-00.000073600000,   5.08000,
,,,-00.000073400000,   4.96000,
,,,-00.000073200000,   4.98000,
,,,-00.000073000000,   4.98000,
,,,-00.000072800000,   4.98000,
,,,-00.000072600000,   4.96000,
,,,-00.000072400000,   4.96000,
,,,-00.000072200000,   4.98000,
,,,-00.000072000000,   4.98000,
,,,-00.000071800000,   5.02000,
,,,-00.000071600000,   4.98000,
,,,-00.000071400000,   4.96000,
,,,-00.000071200000,   5.00000,
,,,-00.000071000000,   4.98000,
,,,-00.000070800000,   4.98000,
,,,-00.000070600000,   5.00000,
,,,-00.000070400000,   4.96000,
,,,-00.000070200000,   4.94000,
,,,-00.000070000000,   4.96000,
,,,-00.000069800000,   4.98000,
,,,-00.000069600000,   4.98000,
,,,-00.000069400000,   4.98000,
,,,-00.000069200000,   5.00000,
,,,-00.000069000000,   4.98000,
,,,-00.000068800000,   4.98000,
,,,-00.000068600000,   4.98000,
,,,-00.000068400000,   4.98000,
,,,-00.000068200000,   4.98000,
,,,-00.000068000000,   4.98000,
,,,-00.000067800000,   4.98000,
,,,-00.000067600000,   4.98000,
,,,-00.000067400000,   5.02000,
,,,-00.000067200000,   4.96000,
,,,-00.000067000000,   4.94000,
,,,-00.000066800000,   4.98000,
,,,-00.000066600000,   4.96000,
,,,-00.000066400000,   4.96000,
,,,-00.000066200000,   4.94000,
,,,-00.000066000000,   4.90000,
,,,-00.000065800000,   4.96000,
,,,-00.000065600000,   4.96000,
,,,-00.000065400000,   5.02000,
,,,-00.000065200000,   4.98000,
,,,-00.000065000000,   4.96000,
,,,-00.000064800000,   4.98000,
,,,-00.000064600000,   4.98000,
,,,-00.000064400000,   5.00000,
,,,-00.000064200000,   4.98000,
,,,-00.000064000000,   4.94000,
,,,-00.000063800000,   4.94000,
,,,-00.000063600000,   4.96000,
,,,-00.000063400000,   4.96000,
,,,-00.000063200000,   4.98000,
,,,-00.000063000000,   4.98000,
,,,-00.000062800000,   4.98000,
,,,-00.000062600000,   5.00000,
,,,-00.000062400000,   5.00000,
,,,-00.000062200000,   4.98000,
,,,-00.000062000000,   4.98000,
,,,-00.000061800000,   5.00000,
,,,-00.000061600000,   4.96000,
,,,-00.000061400000,   4.98000,
,,,-00.000061200000,   5.00000,
,,,-00.000061000000,   5.00000,
,,,-00.000060800000,   5.00000,
,,,-00.000060600000,   4.96000,
,,,-00.000060400000,   4.96000,
,,,-00.000060200000,   4.98000,
,,,-00.000060000000,   5.00000,
,,,-00.000059800000,   4.96000,
,,,-00.000059600000,   4.98000,
,,,-00.000059400000,   4.96000,
,,,-00.000059200000,   4.96000,
,,,-00.000059000000,   5.00000,
,,,-00.000058800000,   4.94000,
,,,-00.000058600000,   4.98000,
,,,-00.000058400000,   4.94000,
,,,-00.000058200000,   4.98000,
,,,-00.000058000000,   5.00000,
,,,-00.000057800000,   4.96000,
,,,-00.000057600000,   4.98000,
,,,-00.000057400000,   5.00000,
,,,-00.000057200000,   4.98000,
,,,-00.000057000000,   4.98000,
,,,-00.000056800000,   4.98000,
,,,-00.000056600000,   4.98000,
,,,-00.000056400000,   4.94000,
,,,-00.000056200000,   4.96000,
,,,-00.000056000000,   5.00000,
,,,-00.000055800000,   5.00000,
,,,-00.000055600000,   4.96000,
,,,-00.000055400000,   4.96000,
,,,-00.000055200000,   4.98000,
,,,-00.000055000000,   5.02000,
,,,-00.000054800000,   4.98000,
,,,-00.000054600000,   5.00000,
,,,-00.000054400000,   5.00000,
,,,-00.000054200000,   4.98000,
,,,-00.000054000000,   4.98000,
,,,-00.000053800000,   5.00000,
,,,-00.000053600000,   4.96000,
,,,-00.000053400000,   4.98000,
,,,-00.000053200000,   5.00000,
,,,-00.000053000000,   4.98000,
,,,-00.000052800000,   5.00000,
,,,-00.000052600000,   4.98000,
,,,-00.000052400000,   4.96000,
,,,-00.000052200000,   5.00000,
,,,-00.000052000000,   5.00000,
,,,-00.000051800000,   5.04000,
,,,-00.000051600000,   4.98000,
,,,-00.000051400000,   4.96000,
,,,-00.000051200000,   4.96000,
,,,-00.000051000000,   4.98000,
,,,-00.000050800000,   4.98000,
,,,-00.000050600000,   5.02000,
,,,-00.000050400000,   4.98000,
,,,-00.000050200000,   5.00000,
,,,-00.000050000000,   5.02000,
,,,-00.000049800000,   4.98000,
,,,-00.000049600000,   4.98000,
,,,-00.000049400000,   5.00000,
,,,-00.000049200000,   4.98000,
,,,-00.000049000000,   5.00000,
,,,-00.000048800000,   5.00000,
,,,-00.000048600000,   4.98000,
,,,-00.000048400000,   4.98000,
,,,-00.000048200000,   4.98000,
,,,-00.000048000000,   4.96000,
,,,-00.000047800000,   5.00000,
,,,-00.000047600000,   4.98000,
,,,-00.000047400000,   4.94000,
,,,-00.000047200000,   4.98000,
,,,-00.000047000000,   4.98000,
,,,-00.000046800000,   4.98000,
,,,-00.000046600000,   4.96000,
,,,-00.000046400000,   4.98000,
,,,-00.000046200000,   4.96000,
,,,-00.000046000000,   4.96000,
,,,-00.000045800000,   4.94000,
,,,-00.000045600000,   4.94000,
,,,-00.000045400000,   5.00000,
,,,-00.000045200000,   4.94000,
,,,-00.000045000000,   4.98000,
,,,-00.000044800000,   4.96000,
,,,-00.000044600000,   4.94000,
,,,-00.000044400000,   5.00000,
,,,-00.000044200000,   4.92000,
,,,-00.000044000000,   4.94000,
,,,-00.000043800000,   4.94000,
,,,-00.000043600000,   4.96000,
,,,-00.000043400000,   4.94000,
,,,-00.000043200000,   4.94000,
,,,-00.000043000000,   4.94000,
,,,-00.000042800000,   4.96000,
,,,-00.000042600000,   4.96000,
,,,-00.000042400000,   4.96000,
,,,-00.000042200000,   4.96000,
,,,-00.000042000000,   4.98000,
,,,-00.000041800000,   4.96000,
,,,-00.000041600000,   4.96000,
,,,-00.000041400000,   4.94000,
,,,-00.000041200000,   4.96000,
,,,-00.000041000000,   4.94000,
,,,-00.000040800000,   4.92000,
,,,-00.000040600000,   4.96000,
,,,-00.000040400000,   4.94000,
,,,-00.000040200000,   4.92000,
,,,-00.000040000000,   4.92000,
,,,-00.000039800000,   4.92000,
,,,-00.000039600000,   4.94000,
,,,-00.000039400000,   4.94000,
,,,-00.000039200000,   4.94000,
,,,-00.000039000000,   4.92000,
,,,-00.000038800000,   4.96000,
,,,-00.000038600000,   4.96000,
,,,-00.000038400000,   4.94000,
,,,-00.000038200000,   5.00000,
,,,-00.000038000000,   4.98000,
,,,-00.000037800000,   4.98000,
,,,-00.000037600000,   4.96000,
,,,-00.000037400000,   4.96000,
,,,-00.000037200000,   5.00000,
,,,-00.000037000000,   4.94000,
,,,-00.000036800000,   4.94000,
,,,-00.000036600000,   4.94000,
,,,-00.000036400000,   4.96000,
,,,-00.000036200000,   4.98000,
,,,-00.000036000000,   4.98000,
,,,-00.000035800000,   4.94000,
,,,-00.000035600000,   4.96000,
,,,-00.000035400000,   4.96000,
,,,-00.000035200000,   4.96000,
,,,-00.000035000000,   4.94000,
,,,-00.000034800000,   4.94000,
,,,-00.000034600000,   4.98000,
,,,-00.000034400000,   4.96000,
,,,-00.000034200000,   4.92000,
,,,-00.000034000000,   4.96000,
,,,-00.000033800000,   4.96000,
,,,-00.000033600000,   4.94000,
,,,-00.000033400000,   4.94000,
,,,-00.000033200000,   4.94000,
,,,-00.000033000000,   4.94000,
,,,-00.000032800000,   4.94000,
,,,-00.000032600000,   4.92000,
,,,-00.000032400000,   4.96000,
,,,-00.000032200000,   4.96000,
,,,-00.000032000000,   4.96000,
,,,-00.000031800000,   4.94000,
,,,-00.000031600000,   4.94000,
,,,-00.000031400000,   4.94000,
,,,-00.000031200000,   4.96000,
,,,-00.000031000000,   4.94000,
,,,-00.000030800000,   4.96000,
,,,-00.000030600000,   4.92000,
,,,-00.000030400000,   5.00000,
,,,-00.000030200000,   4.96000,
,,,-00.000030000000,   4.94000,
,,,-00.000029800000,   4.98000,
,,,-00.000029600000,   4.94000,
,,,-00.000029400000,   5.00000,
,,,-00.000029200000,   4.94000,
,,,-00.000029000000,   4.98000,
,,,-00.000028800000,   5.00000,
,,,-00.000028600000,   4.94000,
,,,-00.000028400000,   4.98000,
,,,-00.000028200000,   4.98000,
,,,-00.000028000000,   5.00000,
,,,-00.000027800000,   4.94000,
,,,-00.000027600000,   4.96000,
,,,-00.000027400000,   4.98000,
,,,-00.000027200000,   5.00000,
,,,-00.000027000000,   4.98000,
,,,-00.000026800000,   4.96000,
,,,-00.000026600000,   4.98000,
,,,-00.000026400000,   4.98000,
,,,-00.000026200000,   4.98000,
,,,-00.000026000000,   4.98000,
,,,-00.000025800000,   4.98000,
,,,-00.000025600000,   4.98000,
,,,-00.000025400000,   4.98000,
,,,-00.000025200000,   5.00000,
,,,-00.000025000000,   4.96000,
,,,-00.000024800000,   4.96000,
,,,-00.000024600000,   4.98000,
,,,-00.000024400000,   4.96000,
,,,-00.000024200000,   4.96000,
,,,-00.000024000000,   4.96000,
,,,-00.000023800000,   4.96000,
,,,-00.000023600000,   5.00000,
,,,-00.000023400000,   4.96000,
,,,-00.000023200000,   4.96000,
,,,-00.000023000000,   5.00000,
,,,-00.000022800000,   4.98000,
,,,-00.000022600000,   5.04000,
,,,-00.000022400000,   4.98000,
,,,-00.000022200000,   4.96000,
,,,-00.000022000000,   4.98000,
,,,-00.000021800000,   4.94000,
,,,-00.000021600000,   4.98000,
,,,-00.000021400000,   5.00000,
,,,-00.000021200000,   4.96000,
,,,-00.000021000000,   4.96000,
,,,-00.000020800000,   4.96000,
,,,-00.000020600000,   4.98000,
,,,-00.000020400000,   4.98000,
,,,-00.000020200000,   4.98000,
,,,-00.000020000000,   4.96000,
,,,-00.000019800000,   4.98000,
,,,-00.000019600000,   4.98000,
,,,-00.000019400000,   4.96000,
