v52_leitungen/data/rectangular-short-cable-1024kHz/F0001CH1.CSV

Record Length,2.500000e+03,,  -0.000005000000, -10.40000,
Sample Interval,4.000000e-09,,  -0.000004996000, -10.40000,
Trigger Point,1.250000000000e+03,,  -0.000004992000, -10.40000,
,,,  -0.000004988000, -10.60000,
,,,  -0.000004984000, -10.80000,
,,,  -0.000004980000, -10.60000,
Source,CH1,,  -0.000004976000, -10.60000,
Vertical Units,V,,  -0.000004972000, -10.40000,
Vertical Scale,5.000000e+00,,  -0.000004968000, -10.60000,
Vertical Offset,0.000000e+00,,  -0.000004964000, -10.60000,
Horizontal Units,s,,  -0.000004960000, -10.40000,
Horizontal Scale,1.000000e-06,,  -0.000004956000, -10.40000,
Pt Fmt,Y,,  -0.000004952000, -10.40000,
Yzero,0.000000e+00,,  -0.000004948000, -10.60000,
Probe Atten,1.000000e+00,,  -0.000004944000, -10.60000,
Model Number,TDS1012B,,  -0.000004940000, -10.40000,
Serial Number,C063631,,  -0.000004936000, -10.40000,
Firmware Version,FV:v22.01,,  -0.000004932000, -10.40000,
,,,-00.000004928000, -10.40000,
,,,-00.000004924000, -10.40000,
,,,-00.000004920000, -10.00000,
,,,-00.000004916000,  -9.80000,
,,,-00.000004912000,  -9.20000,
,,,-00.000004908000,  -8.20000,
,,,-00.000004904000,  -7.60000,
,,,-00.000004900000,  -6.60000,
,,,-00.000004896000,  -5.60000,
,,,-00.000004892000,  -4.40000,
,,,-00.000004888000,  -3.20000,
,,,-00.000004884000,  -2.00000,
,,,-00.000004880000,  -1.00000,
,,,-00.000004876000,   0.40000,
,,,-00.000004872000,   1.60000,
,,,-00.000004868000,   3.00000,
,,,-00.000004864000,   4.00000,
,,,-00.000004860000,   5.40000,
,,,-00.000004856000,   6.80000,
,,,-00.000004852000,   8.00000,
,,,-00.000004848000,   8.80000,
,,,-00.000004844000,   9.80000,
,,,-00.000004840000,  10.60000,
,,,-00.000004836000,  11.00000,
,,,-00.000004832000,  11.40000,
,,,-00.000004828000,  11.60000,
,,,-00.000004824000,  11.40000,
,,,-00.000004820000,  11.20000,
,,,-00.000004816000,  11.00000,
,,,-00.000004812000,  10.80000,
,,,-00.000004808000,  10.60000,
,,,-00.000004804000,  10.60000,
,,,-00.000004800000,  10.80000,
,,,-00.000004796000,  10.60000,
,,,-00.000004792000,  10.60000,
,,,-00.000004788000,  10.60000,
,,,-00.000004784000,  10.80000,
,,,-00.000004780000,  10.60000,
,,,-00.000004776000,  11.00000,
,,,-00.000004772000,  11.00000,
,,,-00.000004768000,  10.80000,
,,,-00.000004764000,  10.80000,
,,,-00.000004760000,  11.00000,
,,,-00.000004756000,  10.80000,
,,,-00.000004752000,  10.80000,
,,,-00.000004748000,  10.80000,
,,,-00.000004744000,  10.80000,
,,,-00.000004740000,  11.00000,
,,,-00.000004736000,  10.80000,
,,,-00.000004732000,  10.80000,
,,,-00.000004728000,  10.60000,
,,,-00.000004724000,  11.00000,
,,,-00.000004720000,  11.00000,
,,,-00.000004716000,  10.60000,
,,,-00.000004712000,  10.80000,
,,,-00.000004708000,  10.80000,
,,,-00.000004704000,  11.00000,
,,,-00.000004700000,  10.60000,
,,,-00.000004696000,  10.60000,
,,,-00.000004692000,  10.80000,
,,,-00.000004688000,  11.00000,
,,,-00.000004684000,  11.00000,
,,,-00.000004680000,  11.00000,
,,,-00.000004676000,  10.80000,
,,,-00.000004672000,  11.20000,
,,,-00.000004668000,  10.40000,
,,,-00.000004664000,  10.60000,
,,,-00.000004660000,  10.60000,
,,,-00.000004656000,  10.80000,
,,,-00.000004652000,  10.80000,
,,,-00.000004648000,  10.80000,
,,,-00.000004644000,  10.60000,
,,,-00.000004640000,  10.80000,
,,,-00.000004636000,  10.60000,
,,,-00.000004632000,  10.80000,
,,,-00.000004628000,  10.80000,
,,,-00.000004624000,  10.80000,
,,,-00.000004620000,  11.00000,
,,,-00.000004616000,  10.60000,
,,,-00.000004612000,  10.80000,
,,,-00.000004608000,  10.80000,
,,,-00.000004604000,  10.80000,
,,,-00.000004600000,  10.60000,
,,,-00.000004596000,  11.00000,
,,,-00.000004592000,  10.80000,
,,,-00.000004588000,  10.80000,
,,,-00.000004584000,  10.60000,
,,,-00.000004580000,  11.00000,
,,,-00.000004576000,  10.80000,
,,,-00.000004572000,  10.80000,
,,,-00.000004568000,  10.60000,
,,,-00.000004564000,  10.80000,
,,,-00.000004560000,  10.80000,
,,,-00.000004556000,  10.80000,
,,,-00.000004552000,  10.60000,
,,,-00.000004548000,  10.60000,
,,,-00.000004544000,  10.60000,
,,,-00.000004540000,  10.80000,
,,,-00.000004536000,  10.60000,
,,,-00.000004532000,  10.80000,
,,,-00.000004528000,  10.40000,
,,,-00.000004524000,  10.60000,
,,,-00.000004520000,  10.60000,
,,,-00.000004516000,  10.40000,
,,,-00.000004512000,  10.60000,
,,,-00.000004508000,  10.60000,
,,,-00.000004504000,  10.40000,
,,,-00.000004500000,  10.60000,
,,,-00.000004496000,  10.80000,
,,,-00.000004492000,  10.60000,
,,,-00.000004488000,  10.80000,
,,,-00.000004484000,  10.60000,
,,,-00.000004480000,  11.00000,
,,,-00.000004476000,  10.40000,
,,,-00.000004472000,  10.60000,
,,,-00.000004468000,  10.80000,
,,,-00.000004464000,  10.80000,
,,,-00.000004460000,  10.40000,
,,,-00.000004456000,  10.80000,
,,,-00.000004452000,  10.60000,
,,,-00.000004448000,  10.80000,
,,,-00.000004444000,  10.80000,
,,,-00.000004440000,  10.80000,
,,,-00.000004436000,  10.60000,
,,,-00.000004432000,  10.00000,
,,,-00.000004428000,   9.40000,
,,,-00.000004424000,   8.40000,
,,,-00.000004420000,   7.60000,
,,,-00.000004416000,   6.40000,
,,,-00.000004412000,   5.40000,
,,,-00.000004408000,   4.40000,
,,,-00.000004404000,   3.20000,
,,,-00.000004400000,   1.80000,
,,,-00.000004396000,   1.00000,
,,,-00.000004392000,  -0.60000,
,,,-00.000004388000,  -1.40000,
,,,-00.000004384000,  -2.60000,
,,,-00.000004380000,  -3.60000,
,,,-00.000004376000,  -5.00000,
,,,-00.000004372000,  -5.80000,
,,,-00.000004368000,  -6.80000,
,,,-00.000004364000,  -7.60000,
,,,-00.000004360000,  -8.80000,
,,,-00.000004356000,  -9.40000,
,,,-00.000004352000, -10.00000,
,,,-00.000004348000, -10.40000,
,,,-00.000004344000, -10.60000,
,,,-00.000004340000, -10.40000,
,,,-00.000004336000, -10.80000,
,,,-00.000004332000, -10.80000,
,,,-00.000004328000, -10.60000,
,,,-00.000004324000, -10.80000,
,,,-00.000004320000, -10.40000,
,,,-00.000004316000, -10.60000,
,,,-00.000004312000, -10.20000,
,,,-00.000004308000, -10.40000,
,,,-00.000004304000, -10.40000,
,,,-00.000004300000, -10.40000,
,,,-00.000004296000, -10.40000,
,,,-00.000004292000, -10.60000,
,,,-00.000004288000, -10.40000,
,,,-00.000004284000, -10.60000,
,,,-00.000004280000, -10.60000,
,,,-00.000004276000, -10.60000,
,,,-00.000004272000, -10.60000,
,,,-00.000004268000, -10.60000,
,,,-00.000004264000, -10.60000,
,,,-00.000004260000, -10.60000,
,,,-00.000004256000, -10.60000,
,,,-00.000004252000, -10.60000,
,,,-00.000004248000, -10.60000,
,,,-00.000004244000, -10.60000,
,,,-00.000004240000, -10.40000,
,,,-00.000004236000, -10.40000,
,,,-00.000004232000, -10.40000,
,,,-00.000004228000, -10.60000,
,,,-00.000004224000, -10.60000,
,,,-00.000004220000, -10.60000,
,,,-00.000004216000, -10.60000,
,,,-00.000004212000, -10.60000,
,,,-00.000004208000, -10.60000,
,,,-00.000004204000, -10.40000,
,,,-00.000004200000, -10.40000,
,,,-00.000004196000, -10.20000,
,,,-00.000004192000, -10.40000,
,,,-00.000004188000, -10.60000,
,,,-00.000004184000, -10.60000,
,,,-00.000004180000, -10.20000,
,,,-00.000004176000, -10.60000,
,,,-00.000004172000, -10.40000,
,,,-00.000004168000, -10.40000,
,,,-00.000004164000, -10.40000,
,,,-00.000004160000, -10.40000,
,,,-00.000004156000, -10.60000,
,,,-00.000004152000, -10.40000,
,,,-00.000004148000, -10.40000,
,,,-00.000004144000, -10.40000,
,,,-00.000004140000, -10.40000,
,,,-00.000004136000, -10.40000,
,,,-00.000004132000, -10.40000,
,,,-00.000004128000, -10.40000,
,,,-00.000004124000, -10.20000,
,,,-00.000004120000, -10.40000,
,,,-00.000004116000, -10.40000,
,,,-00.000004112000, -10.40000,
,,,-00.000004108000, -10.40000,
,,,-00.000004104000, -10.20000,
,,,-00.000004100000, -10.20000,
,,,-00.000004096000, -10.60000,
,,,-00.000004092000, -10.40000,
,,,-00.000004088000, -10.40000,
,,,-00.000004084000, -10.20000,
,,,-00.000004080000, -10.40000,
,,,-00.000004076000, -10.60000,
,,,-00.000004072000, -10.40000,
,,,-00.000004068000, -10.40000,
,,,-00.000004064000, -10.60000,
,,,-00.000004060000, -10.60000,
,,,-00.000004056000, -10.60000,
,,,-00.000004052000, -10.60000,
,,,-00.000004048000, -10.40000,
,,,-00.000004044000, -10.40000,
,,,-00.000004040000, -10.60000,
,,,-00.000004036000, -10.40000,
,,,-00.000004032000, -10.20000,
,,,-00.000004028000, -10.20000,
,,,-00.000004024000, -10.40000,
,,,-00.000004020000, -10.60000,
,,,-00.000004016000, -10.40000,
,,,-00.000004012000, -10.40000,
,,,-00.000004008000, -10.20000,
,,,-00.000004004000, -10.60000,
,,,-00.000004000000, -10.40000,
,,,-00.000003996000, -10.60000,
,,,-00.000003992000, -10.80000,
,,,-00.000003988000, -10.60000,
,,,-00.000003984000, -10.40000,
,,,-00.000003980000, -10.40000,
,,,-00.000003976000, -10.40000,
,,,-00.000003972000, -10.40000,
,,,-00.000003968000, -10.20000,
,,,-00.000003964000, -10.60000,
,,,-00.000003960000, -10.60000,
,,,-00.000003956000, -10.40000,
,,,-00.000003952000, -10.40000,
,,,-00.000003948000, -10.40000,
,,,-00.000003944000, -10.40000,
,,,-00.000003940000, -10.00000,
,,,-00.000003936000,  -9.40000,
,,,-00.000003932000,  -8.60000,
,,,-00.000003928000,  -7.80000,
,,,-00.000003924000,  -6.80000,
,,,-00.000003920000,  -5.80000,
,,,-00.000003916000,  -4.40000,
,,,-00.000003912000,  -3.60000,
,,,-00.000003908000,  -2.20000,
,,,-00.000003904000,  -1.00000,
,,,-00.000003900000,   0.20000,
,,,-00.000003896000,   1.20000,
,,,-00.000003892000,   2.80000,
,,,-00.000003888000,   4.00000,
,,,-00.000003884000,   5.20000,
,,,-00.000003880000,   6.40000,
,,,-00.000003876000,   7.60000,
,,,-00.000003872000,   8.80000,
,,,-00.000003868000,   9.80000,
,,,-00.000003864000,  10.60000,
,,,-00.000003860000,  10.80000,
,,,-00.000003856000,  11.20000,
,,,-00.000003852000,  11.20000,
,,,-00.000003848000,  11.40000,
,,,-00.000003844000,  11.20000,
,,,-00.000003840000,  11.20000,
,,,-00.000003836000,  10.80000,
,,,-00.000003832000,  10.80000,
,,,-00.000003828000,  10.60000,
,,,-00.000003824000,  10.60000,
,,,-00.000003820000,  10.60000,
,,,-00.000003816000,  10.60000,
,,,-00.000003812000,  10.80000,
,,,-00.000003808000,  10.60000,
,,,-00.000003804000,  11.00000,
,,,-00.000003800000,  11.00000,
,,,-00.000003796000,  10.80000,
,,,-00.000003792000,  10.80000,
,,,-00.000003788000,  11.00000,
,,,-00.000003784000,  11.00000,
,,,-00.000003780000,  11.00000,
,,,-00.000003776000,  10.80000,
,,,-00.000003772000,  11.00000,
,,,-00.000003768000,  10.80000,
,,,-00.000003764000,  10.80000,
,,,-00.000003760000,  10.60000,
,,,-00.000003756000,  10.60000,
,,,-00.000003752000,  10.80000,
,,,-00.000003748000,  10.80000,
,,,-00.000003744000,  10.60000,
,,,-00.000003740000,  10.60000,
,,,-00.000003736000,  10.60000,
,,,-00.000003732000,  10.60000,
,,,-00.000003728000,  10.60000,
,,,-00.000003724000,  10.80000,
,,,-00.000003720000,  10.60000,
,,,-00.000003716000,  10.80000,
,,,-00.000003712000,  10.60000,
,,,-00.000003708000,  10.80000,
,,,-00.000003704000,  10.80000,
,,,-00.000003700000,  10.60000,
,,,-00.000003696000,  10.60000,
,,,-00.000003692000,  11.00000,
,,,-00.000003688000,  11.00000,
,,,-00.000003684000,  10.40000,
,,,-00.000003680000,  10.60000,
,,,-00.000003676000,  10.60000,
,,,-00.000003672000,  10.80000,
,,,-00.000003668000,  10.60000,
,,,-00.000003664000,  10.80000,
,,,-00.000003660000,  10.40000,
,,,-00.000003656000,  10.80000,
,,,-00.000003652000,  10.60000,
,,,-00.000003648000,  10.80000,
,,,-00.000003644000,  10.80000,
,,,-00.000003640000,  10.60000,
,,,-00.000003636000,  10.80000,
,,,-00.000003632000,  10.60000,
,,,-00.000003628000,  10.60000,
,,,-00.000003624000,  10.60000,
,,,-00.000003620000,  10.80000,
,,,-00.000003616000,  10.40000,
,,,-00.000003612000,  10.80000,
,,,-00.000003608000,  10.60000,
,,,-00.000003604000,  10.60000,
,,,-00.000003600000,  10.60000,
,,,-00.000003596000,  10.80000,
,,,-00.000003592000,  10.60000,
,,,-00.000003588000,  10.60000,
,,,-00.000003584000,  10.60000,
,,,-00.000003580000,  10.60000,
,,,-00.000003576000,  10.60000,
,,,-00.000003572000,  10.80000,
,,,-00.000003568000,  10.80000,
,,,-00.000003564000,  10.60000,
,,,-00.000003560000,  10.60000,
,,,-00.000003556000,  10.80000,
,,,-00.000003552000,  10.80000,
,,,-00.000003548000,  10.80000,
,,,-00.000003544000,  10.60000,
,,,-00.000003540000,  10.40000,
,,,-00.000003536000,  10.60000,
,,,-00.000003532000,  10.60000,
,,,-00.000003528000,  10.80000,
,,,-00.000003524000,  10.80000,
,,,-00.000003520000,  10.80000,
,,,-00.000003516000,  10.80000,
,,,-00.000003512000,  10.40000,
,,,-00.000003508000,  10.80000,
,,,-00.000003504000,  10.80000,
,,,-00.000003500000,  11.00000,
,,,-00.000003496000,  11.00000,
,,,-00.000003492000,  11.00000,
,,,-00.000003488000,  10.60000,
,,,-00.000003484000,  10.80000,
,,,-00.000003480000,  10.60000,
,,,-00.000003476000,  10.80000,
,,,-00.000003472000,  10.80000,
,,,-00.000003468000,  10.60000,
,,,-00.000003464000,  10.80000,
,,,-00.000003460000,  10.60000,
,,,-00.000003456000,  10.20000,
,,,-00.000003452000,   9.40000,
,,,-00.000003448000,   9.00000,
,,,-00.000003444000,   7.80000,
,,,-00.000003440000,   6.80000,
,,,-00.000003436000,   5.60000,
,,,-00.000003432000,   4.40000,
,,,-00.000003428000,   3.40000,
,,,-00.000003424000,   2.20000,
,,,-00.000003420000,   1.00000,
,,,-00.000003416000,   0.00000,
,,,-00.000003412000,  -1.40000,
,,,-00.000003408000,  -2.20000,
,,,-00.000003404000,  -3.40000,
,,,-00.000003400000,  -4.60000,
,,,-00.000003396000,  -5.80000,
,,,-00.000003392000,  -6.60000,
,,,-00.000003388000,  -7.40000,
,,,-00.000003384000,  -8.60000,
,,,-00.000003380000,  -9.40000,
,,,-00.000003376000, -10.00000,
,,,-00.000003372000, -10.20000,
,,,-00.000003368000, -10.60000,
,,,-00.000003364000, -10.60000,
,,,-00.000003360000, -10.60000,
,,,-00.000003356000, -10.60000,
,,,-00.000003352000, -10.80000,
,,,-00.000003348000, -10.80000,
,,,-00.000003344000, -10.40000,
,,,-00.000003340000, -10.40000,
,,,-00.000003336000, -10.40000,
,,,-00.000003332000, -10.40000,
,,,-00.000003328000, -10.60000,
,,,-00.000003324000, -10.60000,
,,,-00.000003320000, -10.80000,
,,,-00.000003316000, -10.60000,
,,,-00.000003312000, -10.60000,
,,,-00.000003308000, -10.40000,
,,,-00.000003304000, -10.80000,
,,,-00.000003300000, -10.40000,
,,,-00.000003296000, -10.60000,
,,,-00.000003292000, -10.40000,
,,,-00.000003288000, -10.60000,
,,,-00.000003284000, -10.60000,
,,,-00.000003280000, -10.60000,
,,,-00.000003276000, -10.60000,
,,,-00.000003272000, -10.60000,
,,,-00.000003268000, -10.60000,
,,,-00.000003264000, -10.80000,
,,,-00.000003260000, -10.60000,
,,,-00.000003256000, -10.60000,
,,,-00.000003252000, -10.60000,
,,,-00.000003248000, -10.60000,
,,,-00.000003244000, -10.40000,
,,,-00.000003240000, -10.20000,
,,,-00.000003236000, -10.40000,
,,,-00.000003232000, -10.60000,
,,,-00.000003228000, -10.60000,
,,,-00.000003224000, -10.60000,
,,,-00.000003220000, -10.60000,
,,,-00.000003216000, -10.40000,
,,,-00.000003212000, -10.60000,
,,,-00.000003208000, -10.60000,
,,,-00.000003204000, -10.60000,
,,,-00.000003200000, -10.40000,
,,,-00.000003196000, -10.40000,
,,,-00.000003192000, -10.40000,
,,,-00.000003188000, -10.60000,
,,,-00.000003184000, -10.40000,
,,,-00.000003180000, -10.60000,
,,,-00.000003176000, -10.60000,
,,,-00.000003172000, -10.40000,
,,,-00.000003168000, -10.60000,
,,,-00.000003164000, -10.40000,
,,,-00.000003160000, -10.40000,
,,,-00.000003156000, -10.40000,
,,,-00.000003152000, -10.60000,
,,,-00.000003148000, -10.60000,
,,,-00.000003144000, -10.60000,
,,,-00.000003140000, -10.40000,
,,,-00.000003136000, -10.60000,
,,,-00.000003132000, -10.60000,
,,,-00.000003128000, -10.60000,
,,,-00.000003124000, -10.40000,
,,,-00.000003120000, -10.60000,
,,,-00.000003116000, -10.40000,
,,,-00.000003112000, -10.60000,
,,,-00.000003108000, -10.20000,
,,,-00.000003104000, -10.60000,
,,,-00.000003100000, -10.20000,
,,,-00.000003096000, -10.40000,
,,,-00.000003092000, -10.60000,
,,,-00.000003088000, -10.40000,
,,,-00.000003084000, -10.60000,
,,,-00.000003080000, -10.40000,
,,,-00.000003076000, -10.60000,
,,,-00.000003072000, -10.60000,
,,,-00.000003068000, -10.40000,
,,,-00.000003064000, -10.60000,
,,,-00.000003060000, -10.60000,
,,,-00.000003056000, -10.40000,
,,,-00.000003052000, -10.40000,
,,,-00.000003048000, -10.40000,
,,,-00.000003044000, -10.40000,
,,,-00.000003040000, -10.40000,
,,,-00.000003036000, -10.20000,
,,,-00.000003032000, -10.60000,
,,,-00.000003028000, -10.40000,
,,,-00.000003024000, -10.60000,
,,,-00.000003020000, -10.60000,
,,,-00.000003016000, -10.60000,
,,,-00.000003012000, -10.40000,
,,,-00.000003008000, -10.40000,
,,,-00.000003004000, -10.60000,
,,,-00.000003000000, -10.60000,
,,,-00.000002996000, -10.60000,
,,,-00.000002992000, -10.40000,
,,,-00.000002988000, -10.60000,
,,,-00.000002984000, -10.60000,
,,,-00.000002980000, -10.60000,
,,,-00.000002976000, -10.40000,
,,,-00.000002972000, -10.40000,
,,,-00.000002968000, -10.40000,
,,,-00.000002964000, -10.00000,
,,,-00.000002960000,  -9.20000,
,,,-00.000002956000,  -8.60000,
,,,-00.000002952000,  -7.60000,
,,,-00.000002948000,  -7.00000,
,,,-00.000002944000,  -5.80000,
,,,-00.000002940000,  -4.80000,
,,,-00.000002936000,  -3.60000,
,,,-00.000002932000,  -2.80000,
,,,-00.000002928000,  -1.20000,
,,,-00.000002924000,   0.00000,
,,,-00.000002920000,   1.20000,
,,,-00.000002916000,   2.40000,
,,,-00.000002912000,   3.80000,
,,,-00.000002908000,   5.00000,
,,,-00.000002904000,   6.20000,
,,,-00.000002900000,   7.40000,
,,,-00.000002896000,   8.80000,
,,,-00.000002892000,   9.40000,
,,,-00.000002888000,  10.00000,
,,,-00.000002884000,  11.00000,
,,,-00.000002880000,  11.40000,
,,,-00.000002876000,  11.20000,
,,,-00.000002872000,  11.40000,
,,,-00.000002868000,  11.00000,
,,,-00.000002864000,  11.00000,
,,,-00.000002860000,  10.80000,
,,,-00.000002856000,  10.80000,
,,,-00.000002852000,  10.60000,
,,,-00.000002848000,  10.40000,
,,,-00.000002844000,  10.60000,
,,,-00.000002840000,  10.60000,
,,,-00.000002836000,  10.60000,
,,,-00.000002832000,  10.40000,
,,,-00.000002828000,  10.60000,
,,,-00.000002824000,  11.00000,
,,,-00.000002820000,  11.00000,
,,,-00.000002816000,  10.80000,
,,,-00.000002812000,  11.00000,
,,,-00.000002808000,  10.60000,
,,,-00.000002804000,  10.80000,
,,,-00.000002800000,  10.80000,
,,,-00.000002796000,  10.80000,
,,,-00.000002792000,  10.80000,
,,,-00.000002788000,  10.80000,
,,,-00.000002784000,  10.80000,
,,,-00.000002780000,  10.80000,
,,,-00.000002776000,  10.60000,
,,,-00.000002772000,  10.80000,
,,,-00.000002768000,  10.60000,
,,,-00.000002764000,  11.00000,
,,,-00.000002760000,  11.00000,
,,,-00.000002756000,  10.80000,
,,,-00.000002752000,  10.80000,
,,,-00.000002748000,  10.60000,
,,,-00.000002744000,  11.00000,
,,,-00.000002740000,  10.80000,
,,,-00.000002736000,  10.60000,
,,,-00.000002732000,  10.80000,
,,,-00.000002728000,  10.80000,
,,,-00.000002724000,  10.80000,
,,,-00.000002720000,  10.60000,
,,,-00.000002716000,  10.80000,
,,,-00.000002712000,  10.80000,
,,,-00.000002708000,  10.80000,
,,,-00.000002704000,  10.80000,
,,,-00.000002700000,  10.80000,
,,,-00.000002696000,  10.40000,
,,,-00.000002692000,  10.80000,
,,,-00.000002688000,  10.60000,
,,,-00.000002684000,  10.60000,
,,,-00.000002680000,  11.00000,
,,,-00.000002676000,  10.80000,
,,,-00.000002672000,  10.60000,
,,,-00.000002668000,  10.60000,
,,,-00.000002664000,  10.80000,
,,,-00.000002660000,  10.80000,
,,,-00.000002656000,  10.60000,
,,,-00.000002652000,  10.80000,
,,,-00.000002648000,  11.00000,
,,,-00.000002644000,  10.80000,
,,,-00.000002640000,  10.80000,
,,,-00.000002636000,  10.60000,
,,,-00.000002632000,  10.60000,
,,,-00.000002628000,  10.60000,
,,,-00.000002624000,  10.80000,
,,,-00.000002620000,  10.60000,
,,,-00.000002616000,  10.60000,
,,,-00.000002612000,  10.60000,
,,,-00.000002608000,  10.60000,
,,,-00.000002604000,  10.60000,
,,,-00.000002600000,  10.60000,
,,,-00.000002596000,  10.80000,
,,,-00.000002592000,  10.60000,
,,,-00.000002588000,  10.80000,
,,,-00.000002584000,  10.40000,
,,,-00.000002580000,  10.40000,
,,,-00.000002576000,  10.60000,
,,,-00.000002572000,  10.60000,
,,,-00.000002568000,  10.60000,
,,,-00.000002564000,  10.80000,
,,,-00.000002560000,  10.80000,
,,,-00.000002556000,  10.60000,
,,,-00.000002552000,  10.80000,
,,,-00.000002548000,  10.80000,
